{
  "name": "transfer-ms",
  "$schema": "../../node_modules/nx/schemas/project-schema.json",
  "sourceRoot": "apps/transfer-ms/src",
  "projectType": "application",
  "targets": {
    "build": {
      "executor": "@nx/webpack:webpack",
      "outputs": ["{options.outputPath}"],
      "defaultConfiguration": "production",
      "options": {
        "target": "node",
        "compiler": "tsc",
        "outputPath": "dist/apps/transfer-ms",
        "main": "apps/transfer-ms/src/main.ts",
        "tsConfig": "apps/transfer-ms/tsconfig.app.json",
        "assets": ["apps/transfer-ms/src/assets"],
        "isolatedConfig": true,
        "webpackConfig": "apps/transfer-ms/webpack.config.js"
      },
      "configurations": {
        "development": {},
        "production": {}
      }
    },
    "serve": {
      "executor": "@nx/js:node",
      "defaultConfiguration": "development",
      "options": {
        "buildTarget": "transfer-ms:build"
      },
      "configurations": {
        "development": {
          "buildTarget": "transfer-ms:build:development"
        },
        "production": {
          "buildTarget": "transfer-ms:build:production"
        }
      }
    },
    "lint": {
      "executor": "@nx/linter:eslint",
      "outputs": ["{options.outputFile}"],
      "options": {
        "lintFilePatterns": ["apps/transfer-ms/**/*.ts"]
      }
    },
    "test": {
      "executor": "@nx/jest:jest",
      "outputs": ["{workspaceRoot}/coverage/{projectRoot}"],
      "options": {
        "jestConfig": "apps/transfer-ms/jest.config.ts",
        "passWithNoTests": true
      },
      "configurations": {
        "ci": {
          "ci": true,
          "codeCoverage": true
        }
      }
    }
  },
  "tags": []
}
